{
    "partners": [{
        "logo": "tejjara.png",
        "link": "http://tejjara.com/",
        "alt": "Tejjara e-commerce"
    }, {
        "logo": "emtelak.png",
        "link": "http://emtelak.com/",
        "alt": "emtelak real-estate"
    }, {
        "logo": "asap.png",
        "link": "http://asapeg.com/",
        "alt": "ASAP Real-Estate"
    }, {
        "logo": "kazlak.png",
        "link": null,
        "alt": "kazlak Restaurant"
    }, {
        "logo": "urban-leads.png",
        "link": "http://www.urbanleads-eg.com/",
        "alt": "urban-leads"
    }, {
        "logo": "lavie.png",
        "link": null,
        "alt": "lavie"
    }, {
        "logo": "FROZY-TWIST.png",
        "link": "https://www.facebook.com/Frozzytwistegy/",
        "alt": "Frozzy Twist"
    }, {
        "logo": "deltaelnile.png",
        "link": "http://deltaelnile.com/",
        "alt": "delta-elnile"
    }, {
        "logo": "office.png",
        "link": null,
        "alt": "office real-estate"
    }, {
        "logo": "ALDORA.png",
        "link": "http://aldora-egypt.com/",
        "alt": "Aldora Furniture"
    }, {
        "logo": "CAIRO RUNNERS.png",
        "link": "http://www.cairorunners.com/",
        "alt": "Cairo-runners"
    }, {
        "logo": "HOMES EGYPT.png",
        "link": "https://homes-egypt.com/",
        "alt": "Homes egypt"
    }, {
        "logo": "meshwar.png",
        "link": null,
        "alt": null
    }, {
        "logo": "akl-mama.png",
        "link": null,
        "alt": "akl-mama"
    }, {
        "logo": "real.png",
        "link": null,
        "alt": null
    }, {
        "logo": "misr el-ghad.png",
        "link": null,
        "alt": null
    }, {
        "logo": "sheikh.png",
        "link": null,
        "alt": null
    }]
}